{
    "singleServerConfig": {
        "idleConnectionTimeout": 10000,
        "pingTimeout": 1000,
        "connectTimeout": 10000,
        "timeout": 3000,
        "retryAttempts": 3,
        "retryInterval": 1500,
        "password": null,
        "subscriptionsPerConnection": 5,
        "clientName": null,
        "address": "redis://redis.ph.svc.cluster.local:6379",
        "subscriptionConnectionMinimumIdleSize": 1,
        "subscriptionConnectionPoolSize": 50,
        "connectionMinimumIdleSize": 10,
        "connectionPoolSize": 128,
        "database": 0,
        "dnsMonitoringInterval": 5000
    },
    "threads": 0,
    "nettyThreads": 0,
    "codec": {
        "class": "org.redisson.codec.SnappyCodec"
    },
    "transportMode": "NIO"
}
